[{
  "sign": "Aries",
  "data": [{
    "name": "Aries",
    "value": "The signs of Aries and another Aries work relatively well when they work together in a job situation. One disadvantage is that both the signs are very determined. Rather than disagreements on the decision that who should take the lead or any other decision, the one should make an Aries feel appreciated at work. Even if you are competing with another Aries makes them feel less like a competitor and more like a co-worker. At minimum, you can ensure that job will get done."
  },
    {
      "name": "Taurus",
      "value": "Aries and Taurus don't usually get along that well at work because of few reasons: Taurus wants to take the slow, steady approach and takes time to understand everything while Aries wants to charge ahead and get things accomplished with their fast paced and desire to get done quickly. Before, this combination find itself so engaged in disagreements about how things should get done and forget the tasks assigned to them and miss deadlines. To complete the project both Aries and Taurus should move a little bit outside their comfort zones and work together."
    },
    {
      "name": "Gemini",
      "value": "Aries and Gemini can find true career compatibility. They work well together. The nature of the flame of Aries can be countered for pushing through any obstacles, while understanding the work, the need to express the thoughts of Gemini may come in handy. There are few things also that they teach to one another. Gemini provides Aries to think before act and Aries teaches to work boldness to Gemini. Sometimes though Aries become frustrated with Gemini’s endless talking behaviour but at the end they know it's only in service of the project they completing together."
    },
    {
      "name": "Cancer",
      "value": "Aries and Cancer forms a difficult relationship with one another. Ruled by Mars, Aries wants to take action and accomplish goals quickly while Cancer, ruled by the Moon, wants to make things comfortable before taking action. Emotion is important to cancer while work is crucial for Aries. It is difficult to work together for them unless they come to a compromising zone and find middle ground to complete their project together."
    },
    {
      "name": "Leo",
      "value": "Aries and Leo is a good match in energy and focus on work. Both signs are ambitious by nature. Aries likes to think and act quickly on the other hand Leo likes to be out front. Due to competitive energy in both that causes clashes occasionally. Be careful that you find yourself working as a unit together instead of against each other to get the job done."
    },
    {
      "name": "Virgo",
      "value": "Aries is a Fire Sign, they keep on focusing to get the job done quickly while Virgo is an Earth sign, they prefers to spend some time organizing everything to ensure a smoother experience in getting the job done. Aries should slow down for Virgo co-worker to delegate the things to do and give suggetions. Unfortunately, these two can insane each other or weaken one another's work. Learning to listen to different points of view is a lesson for both in this working relationship."
    },
    {
      "name": "Libra",
      "value": "Although Aries and Libra are on opposite sides of the Zodiac cycle, sometimes attract opponents. While working together, Aries likes to take lead and likes their goals and dreams first, do not really listen to others. On the other hand, Libra wants to work in partnership, to ensure that everyone's views are heard and considered. Although this can cause friction from time to time, if both of them can learn to cooperate, then Aries can play a more action-oriented role on the front lines, while the Libra takes care of personal relationships and customer satisfaction."
    },
    {
      "name": "Scorpio",
      "value": "Aries and Scorpio are two completely opposite signs. The great enemy of fire is water, and when you put fire sign Aries in a working relationship with Water Sign Scorpio, you may find that everything is finished. While Aries is moving forward towards the goal, Scorpio will like to drown deep into emotional issues. Communication can become a real problem in this working relationship, making career progress difficult. Aries do not consider the feelings of others, while Scorpio is easily hurt. If these two are not careful, they may find difficulties to complete the job."
    },
    {
      "name": "Sagittarius",
      "value": "As fellow fire signs, Aries and Sagittarius are found in most things, including their careers. Aries are focused and motivated around the work goals and avoid small niceties. Similarly, the bow is sometimes used to say or do the wrong thing - in search of the ultimate truth. Both of them know what to expect from each other and they are happy that the work they are doing can be focused. They do a lot of work, and succeed as an executive unit."
    },
    {
      "name": "Capricorn",
      "value": "Signs of Aries and Capricorn together make a difficult relationship, and it can be in their work. Aries rule over Mars, and wants to move forward towards goals at all times. But Capricorn ruled by Saturn is more traditional. While Aries wants to find the most recent approach to solving any problem while Capricorn tried to use the correct method. The logic of these two conflicts can be frustrating and worse. Although compromise is required, it can be difficult to find these two points of balance."
    },
    {
      "name": "Aquarius",
      "value": "Aries and Aquarius make an unorthodox working duplication, but if they can agree on where they are going, then they can get career compatibility. Aries is focused on moving forward and achieving career goals, while the Aquarius can be the brainchild of Operation to advance a new solution to a problem or to do some fantastic inventions. These two can meet well if they are willing to accept each other's differences and work from their strength position."
    },
    {
      "name": "Pisces",
      "value": "Both are on the opposite side. Aries and Pisces can participate in problems while working together because Aries is a fire sign, while Pisces is a water sign. Aries keep on focus to complete the work quickly while Pisces need to focus on emotions. Meaning is so important for Pisces, but the game of Aries can not be part of the plan. These two signs seem difficult to agree on anything. By the type of work they do it, how it is done, both of these can argue themselves, or just can not communicate very well."
    }
  ]
},
  {
    "sign": "Taurus",
    "data": [
      {
        "name": "Taurus",
        "value": "Taurus is known as a sign that likes to take your time in all things to ensure comfortably. When they are added with another Taurus, they can feel that they are descended to heaven. Work can be very difficult, and careers can slow down in the milestone due to their slow pace but they have fun doing it. It could be difficult if they have tight deadline since both may be focused around frivolous details but if their employer can be patient, then the work he finds is really fine."
      },
      {
        "name": "Gemini",
        "value": "Taurus and Gemini is two completely opposite signs. Taurus is a slow moving earth sign that wants to make sure that everything in its relationship with colleagues is comfortable with its working conditions while Gemini is a fast dynamic sign of ideas and sharing, and the task wants to move towards goals as soon as possible. There are many misunderstandings and frustrations between them, because both of them try to do their own way, so the result may be due to projects. They have to compromise and come together to complete the work."
      },
      {
        "name": "Cancer",
        "value": "Although the Taurus Zodiac may sometimes be the most stubborn indication, demanding its way in matters of work, it can also help in the power of projects through pipelines. Taurus mythological perseverance can be a benefit to cancer colleagues, who want to ensure that they have deep emotional meaning for their work. Taurus and Cancer  together can work strongly. The water nature of cancer ensures that whatever the people do, they benefit from it, while the Taurus  like bulls ensures that whatever they do, it will be followed through to completion."
      },
      {
        "name": "Leo",
        "value": "Taurus and Leo are very interesting while working together. Taurus is happy to take backseats till the need for sensual pleasures is met, while Leo Center is very happy on the stage. Problems arises because  they have very specific ideas about how things should be done, and are not ready to compromise. While that can translate perfectionism into great career alternatives for one or the other, but it is unlikely to benefit both. This is not a good mix, and both of them probably provide the best service to find other signals to work on."
      },
      {
        "name": "Virgo",
        "value": "Taurus and Virgo are Earth signs, so they have almost  same perspective to see life and work. Both are focused on building more stability and security. Taurus want more comforts and pleasure for creature while Virgo is busy in building better future. Together, these two signs can provide enough lucky to any organization that is lucky to get them. These two powers provide loyalty through any obstacle and to their employers."
      },
      {
        "name": "Libra",
        "value": "Taurus and Libra have common planet planet Venus. From this, both are centered around beauty, art, poetry and more. But when Taurus uses this effect to ensure a steady paycheck and crisp working conditions, Libra wants to make bridges and paternal relations. Taurus and Libra are not enemies at work, they are not great together, either. Since there are different reasons for doing what they do on the jobs, they can also be a bit suspicious about the other."
      },
      {
        "name": "Scorpio",
        "value": "Taurus and Scorpio are not a great pair at work. Taurus wants to move slowly and enjoys money and the things it can buy. Scorpio’s are short tempered. If they are on the time limit, then Scorpio's small anger can show itself, instead of finding a pleasant medium. The reason these two don't get along is  because both have fixed signals means they want to get their own way and are not willing to compromise with each other decisions. This relationship can be so full of troubles that maybe it is best to look elsewhere."
      },
      {
        "name": "Sagittarius",
        "value": "Taurus and Sagittarius aren't known for getting along in the Zodiac. Taurus wants to go with a slow and comfort pace while Sagittarius needs to move quickly to complete the job. Difference in their working styles creates difficulty  to complete the work. Rather than trying to run the show, they may need to give concessions in another way to get a job."
      },
      {
        "name": "Capricorn",
        "value": "Taurus and Capricorn, both are Earth Signs are a match made in heaven. They are dedicated to achieve common goals. Taurus's mythological perseverance can push its way to complete any project, while the discerning world of Capricorn in the business world can help to advance the career ladder. Due to the element of Earth being common, these two indicate the general understanding of grounding, so that their accomplishments never go on their heads. They can achieve great success together. "
      },
      {
        "name": "Aquarius",
        "value": "Sign of Taurus and Aquarius are both Fixed Signs,together make a difficult relationship, and it can be in their work. Both have different thoughts on completing the projects and also not great listener to others. Taurus is afraid to lose his errant working conditions, while Aquarius must be the most intelligent in the room. When they are together, the conflict is hoping that no one will come back. Instead of compromising, they find that they just like to get out of work with the other."
      },
      {
        "name": "Pisces",
        "value": "Taurus and Pisces both can be sensitive. Even if it can be a rival, these two can actually get to work and get mutual respect for each other. Due to Earth sign, Taurus feels that it is moving towards something in the future. On the other hand Pisces is water sign, wants to achieve  bigger and  meaningful things in life. Together, these two signs can create beautiful and long-term harmony on the job, and can help each other achieve all their career goals."
      }
    ]
  },
  {
    "sign": "Gemini",
    "data": [
      {
        "name": "Gemini",
        "value": "Due to chatty nature, when two Gemini works together might be funny for outsiders to watch and tough for someone to interfere a word in. Interactive Mercury rules this sign,which means that it is about exchange of ideas. They must have to establish a limit on how long they will discuss before taking action. Once the Geminius is in agreement, there is nothing that they can not do together. They just need  to leave a lot of time before debate."
      },
      {
        "name": "Cancer",
        "value": "Gemini is an interactive sign while Cancer is a sign of emotions, care and protect. Although both can be really important contributors for any work project. The continuous talk of Gemini  gets on Cancer's nerves. They are not quite enemies, but they really never meet to be friends. To make a compromise, these two signs can not work, and in the meantime, their careers may be suffering."
      },
      {
        "name": "Leo",
        "value": "Gemini and Leo work together like house on fire. This match is made in heaven. Gemini, an air sign adds fuel for leo, fire sign.They are very compatible with each other in the work environment. Gemini has many great thoughts and ideas to express. On the other hand leo, exists to get these ideas out to a bigger audience. Success is guaranteed until they can keep their ego in check, and cooperate for the good of everyone involved."
      },
      {
        "name": "Virgo",
        "value": "Gemini and Virgo forms a troubled relationship with each other. As far as career consistency is concerned, they can not always be together. Gemini wants to talk and explore without any limits, often wants to think deeply at night. On the other hand Virgo likes rules and discipline and boundries to complete the work. Although these two will give their best shot to a working relationship, but they do not make eye contact. Both will be happy to work with one another  who bring a similar way of approaching their job."
      },
      {
        "name": "Libra",
        "value": "Gemini and Libra makes a very good pair together when at work and have some of the same goals in their careers. While Gemini is most pleased to use his communication skills to move the ladder, Libra prides itself on building and maintaining relationships to be equally successful. When they meet together, these two signs can create amazing projects and ensure that everyone in their group is used for their best abilities."
      },
      {
        "name": "Scorpio",
        "value": "Gemini is one of the most talkative and well-known signs in the zodiac, and has many great thoughts and ideas to express while Scorpio's sign is very intrinsically using its deep and mysterious nature to better understand the world. Together, they do not meet very well, and instead can get one another's nerves. Although the agreement is possible, but this is unlikely when you are a factor in Scorpio's small rage and famous sting. It’s better to find other work partner."
      },
      {
        "name": "Sagittarius",
        "value": "Air signs and fire sign generally are a good match for one another, but usually the fire sign needs the air sign more than the other way round. Gemini and Sagittarius together have just this effect on one another. Newness is vital to Sagittarius, and Gemini compatibility works better with constant renewal too. If together, there will be a great deal of personal growth and learning for both."
      },
      {
        "name": "Capricorn",
        "value": "Signs of Gemini and Capricorn rubbish each other in a wrong way from the beginning. While Gemini wants to communicate with the deepest parts of his soul, Capricorn is all business, which likes to focus on salaries. Since Gemini wants to explore and learn from its environment and needs constant stimulation in any career while, there is no patience for Capricorn, try and stick to the right choice. It is adviced to choose other signs to work instead of these with another. "
      },
      {
        "name": "Aquarius",
        "value": "Gemini and Aquarius are both Air Signs. They are known for being smart and they are dedicated to learning and communicating all the knowledge gathered. They are the best in compatiblity of all signs. Whatever they do, work and play with love and romance, until they agree that this is not a competition. Aquarius sometimes to be best and brightest. It is a great match for both of them to achieve career success, love and romance."
      },
      {
        "name": "Pisces",
        "value": "Gemini and Pisces are both easy walkable signs, which are able to share the platform with almost anyone on stage. They agree to work together and share their work to get the work done without burden to any one because Gemini, though nature-speaker, does not want to humiliate sensitive Pisces. When they comes together a large number of creative ideas are snatched. Although these two signs make a difficult relationship but if they listen to each other, then things can get bigger than that."
      }
    ]
  },
  {
    "sign": "Cancer",
    "data": [
      {
        "name": "Cancer",
        "value": "For some reasons the natives of two cancers work in full harmony on the front of the career front. First thing is they are both sensitive water signs, are open to emotions and also have intuition on the job. Second is they come out of their way to feel and appreciate others. The more they have to work together, the greater the likelihood that they will make lifetime bonds that last longer than the job. When they work together it looks like a small piece of house in the office."
      },
      {
        "name": "Leo",
        "value": "Cancer and Leo can make a good relation but they are not good for career opportunity . Cancer ruled by moon, a moody sign and less trustworthy.On the other hand Leo ruled by sun, is warm, engaged, and outgoing. While cancer wants to focus on the emotional aspects of her career, Leo wants to act and appear. After all, they are not pulling towards the common goals in the same direction, and should consider working with other signs for more success."
      },
      {
        "name": "Virgo",
        "value": "Virgo is among the signs that can work well with Cancer. Cancer ruled by moon, a moody sign and less trustworthy and it create difficulties on the job. Like their name Crab, they need to reach potential partners and see if they are safe to stay around or not. Both love to work with discipline, and are happy to spend hours in presentations, so everyone looks good when the time comes to impress the boss."
      },
      {
        "name": "Libra",
        "value": "Cancer and Libra makes a difficult relationship with each other. It results very tough to find career happiness. cancer needs emotional protection at work and at home while Libra needs to unite all the people in the partnership, asking them to pay attention. While that quality makes Libra a great diplomat at work but  it is difficult with the native of cancer. Goodwill is such another nature for Libra that he may not know how difficult it is for some people. The result is emotional stress without a great job."
      },
      {
        "name": "Scorpio",
        "value": "Cancer and Scorpio makes a great pair together at work. Both are water signals, normal goals only have more depth than completing their work and going home.Cancer wants to make some sense to the world, and often chooses to help businesses to fulfill this requirement. On the other hand, Scorpio wants to go deeper into the emotional mysteries of the world. Although these two can spend hours in discussing the focus and impact of their work, but what is included in this regard is positive for all involved people. When they use their thoughts together then they get good ideas and complete the work done quickly."
      },
      {
        "name": "Sagittarius",
        "value": "Cancer and Sagittarius can be easy with signs in the zodiac, but together they do not get so well in the career area. Cancer ruled by moon, a moody sign which reduces the dynamic feeling of the Sagittarius. Sagittarius can not wait for a long time to feel comfortable and appreciated for cancer, and in fact, there is a tendency to speak before their thoughts. It can hurt the feelings of cancer and ruin the working relationship. Both can work more freely and get success  if they work with other signs in zodiac."
      },
      {
        "name": "Capricorn",
        "value": "Cancer and Capricorn signs are located on the opposite sides of the zodiac, which means that they are often dragging in different directions in their careers. Cancer loves their workplaces like their homes, and families while Capricorn is very serious about his work, he likes to save money and take a safe route with high-ups. Although both families and traditions share the need to be protected, Capricorn may be so concentrated and ambitious that they forget personal relationships. The agreement is difficult for this pair, so better to work with others for the important projects."
      },
      {
        "name": "Aquarius",
        "value": "Cancer and Aquarius are two signs that do not look at eyes while talking about their careers.Cancer needs to be done at the emotional level of their working life, and they work best when they are doing On the other hand, Aquarius needs careers using their brains, solve complex problems, and prefer to push mankind into the future. Their attention and needs are different, unless they compromise, they will find happy relationships working with other signals."
      },
      {
        "name": "Pisces",
        "value": "Both are water signs means they rely on their emotions to pursue their agenda in their personal relationship and also career relationship. Cancer can bring its emotional intelligence into occupations, while Pisces increase toward high calling, like spirituality, spirituality, art and music.Both keeps eye on each other for the work completion. Since there is less competition or backbiting between these two, they are capable of doing a lot on the job and will still be friends."
      }
    ]
  },
  {
    "sign": "Leo",
    "data": [
      {
        "name": "Leo",
        "value": "It might be funny for some people when Leo-Leo makes pair because this signal is known to keep the center stage themselves. But since Leo is a very open and generous sign by nature, he knows how to share responsibilities and accountability. Working together only presents challenges when one or the other fails to communicate. This signal, when allowed, has wonderful ideas about how to improve the business. If these two will listen to each other it will be the best step towards success."
      },
      {
        "name": "Virgo",
        "value": "When it comes to their working life, Leo and Virgo have two very different goals.Career-wise, Leo is best suited for jobs while Virgo likes to quietly shape and honor whatever she is working till it is not perfect. Leo has the nature of  just completion of  the work anyhow disturbs Virgo, because this sign wants perfectionism in the work. Both have ambition, but this shared quality can not be enough to work best for them, or to find career compatibility. They can get more success  if they work with other signs in zodiac."
      },
      {
        "name": "Libra",
        "value": "Leo ruled by Fire signs, laughs and loves to have fun at work. It is one of the more social signs, with friends and work acquaintances Libra is an ideal fit for this socialization, because it is a sign of partnership and romance. Both are also very creative by nature, which means that when they work together, great ideas come. Success comes when Leo and Libra use their big network of contacts to pay attention to all their hard work. Noone will forget to celebrate later, either!"
      },
      {
        "name": "Scorpio",
        "value": "Leo and Scorpio makes a tough pair at work place. Both are fixed signs, so  both have strong opinion and did not compromise of their decision. The agreement becomes difficult, and it can negatively influence the end result of all their hard work. Leo needs to perform as part of his job function, which is to ask and pay attention to the efforts made by it. But Scorpio can be annoyed with all those paying attention, even want to recognize. At the end,both can get more hapiness in working with other signs. "
      },
      {
        "name": "Sagittarius",
        "value": "Leo and Sagittarius together makes a good pair. Both are Fire signs, means they have lots of energy and like taking action to fulfill things. Both of them understand that a little magnificence can help their cause, especially when presenting the presentation to important customers, or influencing the owner. Leo's ability to welcome you to new customers and feel at home, while Sagittarius needs to meet new people and attract them with wit and humor.  Together, this team can have great success in the field of careers, and may even change the world a little bit."
      },
      {
        "name": "Capricorn",
        "value": "Leo and capricorn do not make good pair at work and also wouldn't choose to be friends outside the workplace.Leo as a Fire sign, wants to find a large audience for his work, and spends the right time of social time to fulfill it. Capricorn likes to stick with the rules, plays by the book, and focuses on the end result, which usually has money. Leo may feel that he is being stopped, while Capricorn is concerned that Leo will be out of control. The agreement is very difficult here."
      },
      {
        "name": "Aquarius",
        "value": "Leo and Aquarius can lie on opposite sides of the Zodiac wheel, but both have a lot to bring to a working relationship. Leo can be a more verbal and talking member of this team, while there is a mind behind the Aquarius operation, which is planning and working to quietly work with them. Leo has little need of Aquarius to pursue his career goals, while Aquarius can benefit from Leo's spectacular social skills. By the time both of them agree to keep their ego separate for jobs, great things of this partnership can come."
      },
      {
        "name": "Pisces",
        "value": "Leo and Pisces can not work for everyone involved in the same job together. Leo is a fire sign that needs to express emotions, socialization and emotions at work, while the Pisces as water signs, are calm, deep and more emotional. Since the water is set on fire, Leo may feel surrounded by the emotional needs of Pisces on the job. Although both signals are willing to compromise, these two can be quite different to work together effectively."
      }
    ]
  },
  {
    "sign": "Virgo",
    "data": [
      {
        "name": "Virgo",
        "value": "Virgo working with Virgo can have a good compatibility and if they can put their mind into the same task, then nothing is there that they can’t  achieve. This sign is known for its organization so the team’s workspace will be pure and everything placed in the proper order. Choosing of leading the project between these two will be difficult. Since both projects prefer to work without giving more supervision, respect and shape, they work better if they are in charge."
      },
      {
        "name": "Libra",
        "value": "Virgo and Libra do not share common things while talking about their working life. Virgo, a hardworking earth, likes to work hard and use its natural discipline to carry the ladder. On the other hand, Libra is more partners oriented, likes to give hands so that everyone can climb on the ladder.Although both have an ambitious side, but when the Libra fails to see its real value, Virgo may be disturbed. Libra does not know about the situation, and can be confused with the irritation of Virgo."
      },
      {
        "name": "Scorpio",
        "value": "Virgo and Scorpio, however, a heterogeneous pair on work can achieve success by adding efforts. Organizing and editing are the Virgo's biggest skill, separating important tasks from those people who will not get much profit. Scorpio also has a gift to look inside a project that really matters. Using these skills, both can find shortcuts for career advancement. When they work together great things happens and money starts rolling."
      },
      {
        "name": "Sagittarius",
        "value": "Virgo and Sagittarius make a difficult relationship with each other. Virgo wants to finish the works with perfection,wants to complete everything to be carefully reseached and edited while Sagittarius wants to work freely. Although these two can communicate well enough, they just do not agree with the way they handle the details. It is better to wrok with other signs for more success. "
      },
      {
        "name": "Capricorn",
        "value": "One of the main issues of Virgo with others is that they do not think most people work hard. Virgo is known for their hard work. The good thing is that they have met with their match in the sign of Capricorn. Both of these earth signs know that hard work means to climb the ladder so that they can claim their innate claim. Both wealth and success come when these powerhouses set their minds on a shared goal. Together, they can reveal almost anything in their desired career area."
      },
      {
        "name": "Aquarius",
        "value": "Virgo and Aquarius can be difficult to work together. Virgo wants to use his brain to communicate interesting ideas in the service of humankind, and the Aquarius is always pushing the border into the future with its set of humanist goals. But even though they share some things, these two are not sufficient enough to be really friendly. After all, both have a lot to offer to work with other signals that see their real value."
      },
      {
        "name": "Pisces",
        "value": "Virgo and Pisces sit in front of each other on the zodiac cycle, which can sometimes mean that they are dragging in opposite directions in contrast to opposing ideas and desires. But in the working field, both Virgo and Pisces can find a way to profit, as long as they are willing to agree on what each role will play. Since Virgo is great in shaping, editing and organizing, it is therefore a role. On the other hand, Pisces needs to connect with the project at the emotional level, and what customers know at intuitive level."
      }
    ]
  },
  {
    "sign": "Libra",
    "data": [
      {
        "name": "Libra",
        "value": "On the career front, two Libra’s working together are bound to please each other. Libra native talk, laugh, and socialize, wherever they go, make friends. In his career, he is compatible with signals which are ambitious, but not ready to take action on everyone to go to the top. Between them, they are likely to have a large number of contacts to make any job easier. Determining the intent of focusing on work and chatting at lunch makes sure that everything is done."
      },
      {
        "name": "Scorpio",
        "value": "When it comes to career harmony, Libra and Scorpio do not agree on anything. Windy nature of the Libra may seem like wasting or wasting time for more serious Scorpio, the entire Scorpio's Brady Conductors can usually bring down the sunlight mood very quickly. Scorpio is not great for speaking anyway, while it is the power of Libra. Long ago, this combination could be ugly. Since Scorpio can be contradictory, and Libra's emotions are easily hurt, both can get better results with other signals."
      },
      {
        "name": "Sagittarius",
        "value": "Libra and Sagittarius Zodiac make a harmonious aspect on the zodiac, meaning that they meet well on the job. In fact, because Libra is focused on all partnerships and mutual benefits because they can get a happy business relationship with Sagittarius. Both have great work skills, with their ease and sociality and their natural grudge with Sagittarius. By combining these two forces and choosing projects, those who have a deep meaning for Sagittarius and provide peace and harmony for the Libra. When they come together and put their thoughts then sky is the limit!"
      },
      {
        "name": "Capricorn",
        "value": "Capricorn and Libra are both hard working and have mutual respect. Some differences may arise at times but that is mostly because Capricorns are overly serious for work. When these two Signs work together on a project or a problem, it works best if they have pre-set roles to fulfill, as they both like to take charge. Once their expectations are defined, their approaches are once again quite different: Libra is pondering and intellectual, but Capricorn sees the value of doing things the hard way if it leads to certain success. Once the partners understand each other’s style, their methods help them to achieve together what they could not achieve alone."
      },
      {
        "name": "Aquarius",
        "value": "Libra and Aquarius are both air signs, so they meet very well in their careers. Air signs need to use your brain to solve complex problems or come up with simple new ways to make something better for the future. Both like using this brain power to make the world a better place. When they are together, success is ensured. In social situations, the ease of the Libra sometimes complements the Aquarius with a sick condition, whereas Aquarius needs to serve mankind, giving them a bit more depth. Both makes a good pair at work."
      },
      {
        "name": "Pisces",
        "value": "Libra and Pisces together make a strange aspect, which means that they are not quite friends and not very enemies. Libra is a very social air sign that surrounds itself with beauty, art and music.Pisces also loves beauty, art and music, but it seems to be very much inward and moody. Together they can communicate, but do not really choose to get out. As a result, the work they do is suffering. Although both wish each other well, they are better at working with other signals who see their careers in their way."
      }
    ]
  },
  {
    "sign": "Scorpio",
    "data": [
      {
        "name": "Scorpio",
        "value": "Since Scorpio can be a little bit on the emotional side, so working with someone else can create issues like self. This signal can be a little testistic if they feel someone is not pulling their weight in the team, and can resort to passive-aggressive or moody displays. If these two can come to the same page and use their shared powers, then there is a lot of success. Scorpio can be wonderful planners, can see ways to reach the top of the career ladder, that no other sign can see. Together, they can take both worlds!"
      },
      {
        "name": "Sagittarius",
        "value": "Scorpio and Sagittarius Zodiac sign can be close to each other, but they do not share much in the way of career compatibility. Scorpio likes to plan and plan their way to the top of the food chain, while the bow is much more free and weak with its career goals. The watery and emotional nature of Scorpio also stimulates the fire of the bow, which is not fun for anyone. Together, they do not get anywhere much in their working life, who like to move forward towards other signals who want to see them."
      },
      {
        "name": "Capricorn",
        "value": "Although Scorpio is one of the deepest and more emotionally inspired signs in the Zodiac, it is also one of the most crafty strategists. This means that the vast ambition of Capricorn is done by Scorpio's intelligence, which makes both signals happy. Scorpio's water helps to grow Capricorn in the earth and is also productive, while Capricorn helps to shape the views of Scorpio. This pair can bring great success to start any business or collaborate on any project. They can also find that continuing the working relationship outside the workplace can result in true friendship."
      },
      {
        "name": "Aquarius",
        "value": "Scorpio and Aquarius are both definite signs, which means they make an inhumane relationship with each other. Both believe that they have the right answer for most of the time, and when the other has any suggestions then they are not ready to listen. It has friction in the workplace and, before long, they find that they are debating openly. Although both have a lot to offer to the career field, nor do they want to follow them. It’s difficult to complete the work if both wants to be leader and not worker. Both will provide better service to cooperate with other signals."
      },
      {
        "name": "Pisces",
        "value": "As companion water signals, Scorpio and Pisces know what it is like sensitive people in the workplace. Their careers are important to them, but there is a need to keep an intense objective and meaning, which translates into a weekly paycheck, will not appeal to both of them. One challenge is that both can be disabled in their careers, waiting for others to pay attention to their wonderful qualities. But this only causes scarcity and Depression for Scorpio. If both hints can use their creativity at work, then they can achieve big success."
      }
    ]
  },
  {
    "sign": "Sagittarius",
    "data": [
      {
        "name": "Sagittarius",
        "value": "Both makes an ultimate pair at career compatibility. Both people can have far-flung and sometimes only plain wild ideas that test the limits of the owner's patience. But in any way, it shines through their spontaneous optimism, and everything works in the end. Without the border, this quality of brain storms is used many times in the career of this signal."
      },
      {
        "name": "Capricorn",
        "value": "When it comes to career, Sagittarius and the Capricorn are not compatible. Sagittarius , a fire sign, who wants to understand themselves and what their jobs mean, travel and experience the world. On the other hand, Capricorn is an earth sign, which is related to making nest eggs, enhancing its investment and reaching the top of the corporate ladder. Neither can it be convinced that the other can have a point, so it is best that they pursue their career goals and ask for other hints to combine and build a coalition."
      },
      {
        "name": "Aquarius",
        "value": "Sagittarius can be a fast friend in their working life, because they both see their careers in the same way. Sagittarius is an idealistic sign that wants to make a positive change on the job, while Aquarius likes to use his monuments to invent new solutions for world problems. When they are together, the fun sessions can be fast and furious, because exciting new ideas come out.The main issue to choose for this pair is which idea to be pursue first. "
      },
      {
        "name": "Pisces",
        "value": "Although Sagittarius and Pisces shared the desire to join the larger, wider world, but they are not very consistent on the career front. This is because Sagittarius, easy to work without borders or boundaries, is still ambitious. Their fire sign fuel demand is that they search for best positions, salaries and benefits. On the other hand, Pisces, soft indications often lead others to soft signals to the material. Although there is a lot to offer with the creativity of Pisces, Sagittarius does not like to wait around. Both can have good relation outside the office. For more success they had to pair with other signs."
      }
    ]
  },
  {
    "sign": "Capricorn",
    "data": [
      {
        "name": "Capricorn",
        "value": "Since Capricorn zodiac is one of the most ambitious signs of the zodiac, therefore working with someone like them can be successful or not. This sign grows through hard work through traditions, money, and ranks and proves itself. So if these two can learn to work together for common goals, then they are sometimes one of the most powerful combos. When they disagree about the direction, then a challenge arises. By debating the relative qualities of their work, titles and contributions, they help in getting both money and status on the job."
      },
      {
        "name": "Aquarius",
        "value": "By career perspective, Capricorn and Aquarius are not the best match. Since Capricorn is drawn towards a traditional career that promotes its position in the world, they need respect so that their careers can give them.On the other hand, Aquarius, move towards humanitarian concerns, in order to bring more equality and balance in the world. Together, they just do not look at the eyes to each other.They always  disagree with the direction of their work. Both are doing their best to work with other signals to fulfill their true potential."
      },
      {
        "name": "Pisces",
        "value": "Capricorn and Pisces can be an impossible pair on paper, but at work they can help each other through the ranks together. Capricorn's career is the primary focus of their lives, and they get a lot of self-esteem there. Meaning as an emotional water sign, need to feel connected to others, and often sacrifice for them.If Capricorn can provide structure for their common goals, then Pisces wins. If Pisces can sometimes make selfish actions human beings, then both signs are successful. Both of these can become friends fast even outside the office, and can make new plans together."
      }
    ]
  },
  {
    "sign": "Aquarius",
    "data": [
      {
        "name": "Aquarius",
        "value": "Aquarius is a cerebral air sign that enjoys solving complex problems on the job. Initially they will be worried if paired together. Belief in Aquarius is slow, this proof is needed that you will not bother your big plans. But if both of them can learn to compromise on the direction of their work and play each role, then it can become a very powerful team. Both are somewhat futuristic, who will build upon mankind to help, focus on them, and both are very excited when their natural creative powers are doubled."
      },
      {
        "name": "Pisces",
        "value": "Aquarius and Pisces can share some qualities, in which the world wants to make a better place with its work. But for some reasons they are not very consistent in their career. Aquarius needs to use their idealism to solve problems in harassing humankind, and sometimes there is no time for the mood of mesence. On the other hand, the focus of the Aquarius zodiac focuses on a little bit. After all, emotions are important to them. Together, this couple never really comes out of the ground. Both of them need other signals who are able to appreciate who they are."
      }
    ]
  },
  {
    "sign": "Pisces",
    "data": [
      {
        "name": "Pisces",
        "value": "On the career front, Pisces needs something that will make more sense, and connect them with people's feelings. They are very creative, there is a job that will stimulate them and allow them to express in this way.When they are connected with the Pisces on the job, the wonderful ideas start to flow. Both respect each other and will never compromise with what they are making for personal gain. Success comes when this creative output does not come in any way shape. Pisces are always grateful for the experience, and can meet themselves with a new friend."
      }
    ]
  }
]
