{
  "Cards": {
      "Data" : [
          {
            "name": "0_TheFool_0",
            "title": "The-Fool"
          },
          {
            "name": "1_TheMagician_0",
            "title": "The-Magician"
          },
          {
            "name": "2_TheHighPriestess_0",
            "title": "The-High-Priestess"
          },
          
          {
            "name": "3_TheEmpress_0",
            "title": "The-Empress"
          },
          
          {
            "name": "4_The Emperor_0",
            "title": "The-Emperor"
          },
          
          {
            "name": "5_TheHierophant_0",
            "title": "The-Hierophant"
          },
          
          {
            "name": "6_TheLovers_0",
            "title": "The-Lovers"
          },
          
          {
            "name": "7_TheChariot_0",
            "title": "The-Chariot"
          },
          
          {
            "name": "8_Strength_0",
            "title": "Strength"
          },
          
          {
            "name": "9_TheHermit_0",
            "title": "The-Hermit"
          },
         
          {
            "name": "10_TheWheelOfFortune_0",
            "title": "Wheel-Of-Fortune"
          },
          
          {
            "name": "11_Justice_0",
            "title": "Justice"
          },
          
          {
            "name": "12_TheHangedMan_0",
            "title": "The-Hanged-Man"
          },
          
          {
            "name": "13_Death_0",
            "title": "Death"
          },
          
          {
            "name": "14_Temperance_0",
            "title": "Temperance"
          },
          
          {
            "name": "15_TheDevil_0",
            "title": "The-Devil"
          },
          
          {
            "name": "16_TheTower_0",
            "title": "The-Tower"
          },
         
          {
            "name": "17_TheStar_0",
            "title": "The-Star"
          },
          
          {
            "name": "18_TheMoon_0",
            "title": "The-Moon"
          },
          
          {
            "name": "19_TheSun_0",
            "title": "The-Sun"
          },
          
          {
            "name": "20_Judgement_0",
            "title": "Judgement"
          },
          
          {
            "name": "21_TheWorld_0",
            "title": "The-World"
          },
          {
            "name": "2OfCups_0",
            "title": "Two-Of-Cups"
          },
          
          {
            "name": "3OfCups_0",
            "title": "Three-Of-Cups"
          },
          
          {
            "name": "4OfCups_0",
            "title": "Four-Of-Cups"
          },
          
          {
            "name": "5OfCups_0",
            "title": "Five-Of-Cups"
          },
          
          {
            "name": "6OfCups_0",
            "title": "Six-Of-Cups"
          },
          
          {
            "name": "7OfCups_0",
            "title": "Seven-Of-Cups"
          },
          
          {
            "name": "8OfCups_0",
            "title": "Eight-Of-Cups"
          },
          
          {
            "name": "9OfCups_0",
            "title": "Nine-Of-Cups"
          },
          
          {
            "name": "10OfCups_0",
            "title": "Ten-Of-Cups"
          },
          
          {
            "name": "AceOfCups_0",
            "title": "Ace-Of-Cups"
          },
          
          {
            "name": "KingOfCups_0",
            "title": "King-Of-Cups"
          },
          
          {
            "name": "KnightOfCups_0",
            "title": "Knight-Of-Cups"
          },
          
          {
            "name": "PageOfCups_0",
            "title": "Page-Of-Cups"
          },
          
          {
            "name": "QueenOfCups_0",
            "title": "Queen-Of-Cups"
          },
          {
            "name": "2OfPentacles_0",
            "title": "Two-Of-Pentacles"
          },
          
          {
            "name": "3OfPentacles_0",
            "title": "Three-Of-Pentacles"
          },
          
          {
            "name": "4OfPentacles_0",
            "title": "Four-Of-Pentacles"
          },
          
          {
            "name": "5OfPentacles_0",
            "title": "Five-Of-Pentacles"
          },
          
          {
            "name": "6OfPentacles_0",
            "title": "Six-Of-Pentacles"
          },
          
          {
            "name": "7OfPentacles_0",
            "title": "Seven-Of-Pentacles"
          },
          
          {
            "name": "8OfPentacles_0",
            "title": "Eight-Of-Pentacles"
          },
          
          {
            "name": "9OfPentacles_0",
            "title": "Nine-Of-Pentacles"
          },
          
          {
            "name": "10OfPentacles_0",
            "title": "Ten-Of-Pentacles"
          },
          
          {
            "name": "AceOfPentacles_0",
            "title": "Ace-Of-Pentacles"
          },
          
          {
            "name": "KingOfPentacles_0",
            "title": "King-Of-Pentacles"
          },
          
          {
            "name": "KnightOfPentacles_0",
            "title": "Knight-Of-Pentacles"
          },
          
          {
            "name": "PageOfPentacles_0",
            "title": "Page-Of-Pentacles"
          },
          
          {
            "name": "QueenOfPentacles_0",
            "title": "Queen-Of-Pentacles"
          },
          {
            "name": "2OfSwords_0",
            "title": "Two-Of-Swords"
          },
          
          {
            "name": "3OfSwords_0",
            "title": "Three-Of-Swords"
          },
          
          {
            "name": "4OfSwords_0",
            "title": "Four-Of-Swords"
          },
          
          {
            "name": "5OfSwords_0",
            "title": "Five-Of-Swords"
          },
          
          {
            "name": "6OfSwords_0",
            "title": "Six-Of-Swords"
          },
          
          {
            "name": "7OfSwords_0",
            "title": "Seven-Of-Swords"
          },
          
          {
            "name": "8OfSwords_0",
            "title": "Eight-Of-Swords"
          },
          
          {
            "name": "9OfSwords_0",
            "title": "Nine-Of-Swords"
          },
          
          {
            "name": "10OfSwords_0",
            "title": "Ten-Of-Swords"
          },
          
          {
            "name": "AceOfSwords_0",
            "title": "Ace-Of-Swords"
          },
          
          {
            "name": "KingOfSwords_0",
            "title": "King-Of-Swords"
          },
          {
            "name": "KnightOfSwords_0",
            "title": "Knight-Of-Swords"
          },
          {
            "name": "PageOfSwords_0",
            "title": "Page-Of-Swords"
          },
          {
            "name": "QueenOfSwords_0",
            "title": "Queen-Of-Swords"
          },
          {
            "name": "2OfWands_0",
            "title": "Two-Of-Wands"
          },
          {
            "name": "3OfWands_0",
            "title": "Three-Of-Wands"
          },
          {
            "name": "4OfWands_0",
            "title": "Four-Of-Wands"
          },
          {
            "name": "5OfWands_0",
            "title": "Five-Of-Wands"
          },
          {
            "name": "6OfWands_0",
            "title": "Six-Of-Wands"
          },
          {
            "name": "7OfWands_0",
            "title": "Seven-Of-Wands"
          },
          {
            "name": "8OfWands_0",
            "title": "Eight-Of-Wands"
          },
          {
            "name": "9OfWands_0",
            "title": "Nine-Of-Wands"
          },
          {
            "name": "10OfWands_0",
            "title": "Ten-Of-Wands"
          },
          {
            "name": "AceOfWands_0",
            "title": "Ace-Of-Wands"
          },
          {
            "name": "KingOfWands_0",
            "title": "King-Of-Wands"
          },
          {
            "name": "KnightOfWands_0",
            "title": "Knight-Of-Wands"
          },
          {
            "name": "PageOfWands_0",
            "title": "Page-Of-Wands"
          },
          {
            "name": "QueenOfWands_0",
            "title": "Queen-Of-Wands"
          }
    ]
  }
}
